[
{
"acceleration": 2.0,
"curvature": 0.0,
"pose": {
"rotation": {
"radians": 0.0
},
"translation": {
"x": 2.5111701510672435,
"y": 0.7946474680193774
}
},
"time": 0.0,
"velocity": 0.0
},
{
"acceleration": 2.0,
"curvature": -0.05740183421590842,
"pose": {
"rotation": {
"radians": -0.0019871755349639367
},
"translation": {
"x": 2.5743523338903684,
"y": 0.794603891645763
}
},
"time": 0.2513606927311931,
"velocity": 0.5027213854623862
},
{
"acceleration": 2.000000000000001,
"curvature": -0.08006746250679271,
"pose": {
"rotation": {
"radians": -0.006748377784605021
},
"translation": {
"x": 2.6407538391643524,
"y": 0.7943220864903502
}
},
"time": 0.35997819532039005,
"velocity": 0.7199563906407801
},
{
"acceleration": 1.9999999999999993,
"curvature": -0.0757973175486496,
"pose": {
"rotation": {
"radians": -0.012489071339160959
},
"translation": {
"x": 2.712975546283963,
"y": 0.7936253701830438
}
},
"time": 0.44923197651915053,
"velocity": 0.8984639530383012
},
{
"acceleration": 2.0,
"curvature": -0.059645914442196114,
"pose": {
"rotation": {
"radians": -0.01793361193023611
},
"translation": {
"x": 2.7929861756244114,
"y": 0.7923994855241068
}
},
"time": 0.5308760577822031,
"velocity": 1.0617521155644063
},
{
"acceleration": 1.999999999999999,
"curvature": -0.04169472998126655,
"pose": {
"rotation": {
"radians": -0.02243042558743052
},
"translation": {
"x": 2.8821690452871453,
"y": 0.790587412477513
}
},
"time": 0.6091228660158508,
"velocity": 1.2182457320317015
},
{
"acceleration": 2.000000000000001,
"curvature": -0.0261085775640188,
"pose": {
"rotation": {
"radians": -0.02575492719302325
},
"translation": {
"x": 2.9813688278456487,
"y": 0.7881841801643006
}
},
"time": 0.6857547336821472,
"velocity": 1.3715094673642945
},
{
"acceleration": 2.0000000000000018,
"curvature": -0.013729043985228796,
"pose": {
"rotation": {
"radians": -0.027899190840803716
},
"translation": {
"x": 3.090938307091232,
"y": 0.785231678855923
}
},
"time": 0.7614911729049999,
"velocity": 1.5229823458099998
},
{
"acceleration": 1.9999999999999964,
"curvature": -0.004109879607867596,
"pose": {
"rotation": {
"radians": -0.028936605156119666
},
"translation": {
"x": 3.210785134778834,
"y": 0.7818134719676033
}
},
"time": 0.8365191990154595,
"velocity": 1.6730383980309191
},
{
"acceleration": 1.9999999999999967,
"curvature": -9.918092360226293e-05,
"pose": {
"rotation": {
"radians": -0.029067387891750375
},
"translation": {
"x": 3.274423486213524,
"y": 0.7799659607624605
}
},
"time": 0.8737445473577575,
"velocity": 1.747489094715515
},
{
"acceleration": 1.9999999999999967,
"curvature": 0.0035053498801811476,
"pose": {
"rotation": {
"radians": -0.028952265081418273
},
"translation": {
"x": 3.3404185873728127,
"y": 0.7780496080516848
}
},
"time": 0.9107428026999635,
"velocity": 1.8214856053999269
},
{
"acceleration": 2.0,
"curvature": 0.006790309282651236,
"pose": {
"rotation": {
"radians": -0.028598670903859837
},
"translation": {
"x": 3.4086545227041984,
"y": 0.7760842695496528
}
},
"time": 0.9474791211819695,
"velocity": 1.8949582423639386
},
{
"acceleration": 2.0,
"curvature": 0.009834483686818912,
"pose": {
"rotation": {
"radians": -0.02801201693927249
},
"translation": {
"x": 3.478996322792743,
"y": 0.774091432790982
}
},
"time": 0.9839139742851281,
"velocity": 1.9678279485702557
},
{
"acceleration": 1.999999999999994,
"curvature": 0.01270940639182964,
"pose": {
"rotation": {
"radians": -0.027195534625807042
},
"translation": {
"x": 3.5512914255093797,
"y": 0.7720940550053195
}
},
"time": 1.0200046069227493,
"velocity": 2.040009213845498
},
{
"acceleration": 2.0000000000000058,
"curvature": 0.01548056748046351,
"pose": {
"rotation": {
"radians": -0.026150170613492042
},
"translation": {
"x": 3.625371137159214,
"y": 0.7701164009921362
}
},
"time": 1.0557061632440943,
"velocity": 2.111412326488188
},
{
"acceleration": 2.0000000000000058,
"curvature": 0.01820895414094146,
"pose": {
"rotation": {
"radians": -0.02487450160223683
},
"translation": {
"x": 3.701052093629836,
"y": 0.7681838809955206
}
},
"time": 1.090972561110954,
"velocity": 2.1819451222219075
},
{
"acceleration": 2.0,
"curvature": 0.02095275684693445,
"pose": {
"rotation": {
"radians": -0.02336464487217709
},
"translation": {
"x": 3.778137721539621,
"y": 0.7663228885789675
}
},
"time": 1.1257571752681177,
"velocity": 2.251514350536235
},
{
"acceleration": 2.0,
"curvature": 0.02376917657042381,
"pose": {
"rotation": {
"radians": -0.021614146870920458
},
"translation": {
"x": 3.8564196993860405,
"y": 0.7645606385001731
}
},
"time": 1.1600133742798238,
"velocity": 2.320026748559647
},
{
"acceleration": 2.0,
"curvature": 0.026716332437075076,
"pose": {
"rotation": {
"radians": -0.01961383582098157
},
"translation": {
"x": 3.9356794186939643,
"y": 0.7629250045858251
}
},
"time": 1.1936949454544206,
"velocity": 2.3873898909088407
},
{
"acceleration": 2.0,
"curvature": 0.029855313481401136,
"pose": {
"rotation": {
"radians": -0.017351625993476543
},
"translation": {
"x": 4.015689445163969,
"y": 0.7614443576063961
}
},
"time": 1.2267564339979429,
"velocity": 2.4535128679958853
},
{
"acceleration": 2.0,
"curvature": 0.03325245311560632,
"pose": {
"rotation": {
"radians": -0.014812261480170855
},
"translation": {
"x": 4.096214979820643,
"y": 0.7601474031509383
}
},
"time": 1.259153416701513,
"velocity": 2.5183068334030256
},
{
"acceleration": 2.0,
"curvature": 0.03698193834668094,
"pose": {
"rotation": {
"radians": -0.011976986223868172
},
"translation": {
"x": 4.177015320160894,
"y": 0.7590630195018706
}
},
"time": 1.2908427260154915,
"velocity": 2.5816854520309827
},
{
"acceleration": 1.9999999999999944,
"curvature": 0.041128903961447874,
"pose": {
"rotation": {
"radians": -0.008823124826302672
},
"translation": {
"x": 4.257845321302254,
"y": 0.7582200955097749
}
},
"time": 1.321782637003728,
"velocity": 2.6435652740074556
},
{
"acceleration": 2.0000000000000053,
"curvature": 0.04579321090748355,
"pose": {
"rotation": {
"radians": -0.005323555201481497
},
"translation": {
"x": 4.338456857131183,
"y": 0.7576473684681861
}
},
"time": 1.3519330271270609,
"velocity": 2.7038660542541213
},
{
"acceleration": 2.0,
"curvature": 0.0510941748595118,
"pose": {
"rotation": {
"radians": -0.0014460493125069821
},
"translation": {
"x": 4.418600281451381,
"y": 0.7573732619883868
}
},
"time": 1.381255516877726,
"velocity": 2.7625110337554517
},
{
"acceleration": 2.000000000000011,
"curvature": 0.05717660448682233,
"pose": {
"rotation": {
"radians": 0.0028475482833814673
},
"translation": {
"x": 4.498025889132091,
"y": 0.7574257238741966
}
},
"time": 1.4097135978317794,
"velocity": 2.8194271956635584
},
{
"acceleration": 2.0000000000000115,
"curvature": 0.06421864185174954,
"pose": {
"rotation": {
"radians": 0.007602343019610791
},
"translation": {
"x": 4.5764853772564,
"y": 0.7578320639967675
}
},
"time": 1.4372727536006396,
"velocity": 2.874545507201279
},
{
"acceleration": 2.0000000000000115,
"curvature": 0.07244208806818457,
"pose": {
"rotation": {
"radians": 0.012871664456004232
},
"translation": {
"x": 4.653733306269556,
"y": 0.7586187921693721
}
},
"time": 1.463900578369811,
"velocity": 2.9278011567396223
},
{
"acceleration": 2.000000000000012,
"curvature": 0.08212617321612482,
"pose": {
"rotation": {
"radians": 0.018718657630355635
},
"translation": {
"x": 4.729528561127266,
"y": 0.7598114560221996
}
},
"time": 1.4895668971590483,
"velocity": 2.9791337943180976
},
{
"acceleration": 1.9999999999999878,
"curvature": 0.09362613184393348,
"pose": {
"rotation": {
"radians": 0.0252182775994888
},
"translation": {
"x": 4.803635812444002,
"y": 0.7614344788771481
}
},
"time": 1.5142438915872267,
"velocity": 3.0284877831744548
},
{
"acceleration": -1.0217587370790722,
"curvature": 0.10739853706659813,
"pose": {
"rotation": {
"radians": 0.03245980031374478
},
"translation": {
"x": 4.875826977641313,
"y": 0.7635109976226122
}
},
"time": 1.5379062347548835,
"velocity": 3.075812469509768
},
{
"acceleration": -2.0,
"curvature": 0.12403622367408446,
"pose": {
"rotation": {
"radians": 0.04054999946162444
},
"translation": {
"x": 4.945882682096123,
"y": 0.7660627005882823
}
},
"time": 1.5607846012207864,
"velocity": 3.052436298683135
},
{
"acceleration": -2.0,
"curvature": 0.14431694230176262,
"pose": {
"rotation": {
"radians": 0.04961718807727289
},
"translation": {
"x": 5.013593720289048,
"y": 0.769109665419931
}
},
"time": 1.583153595937442,
"velocity": 3.0076983092498235
},
{
"acceleration": -2.0,
"curvature": 0.16927186186132478,
"pose": {
"rotation": {
"radians": 0.05981638998580416
},
"translation": {
"x": 5.07876251695269,
"y": 0.7726701969542056
}
},
"time": 1.6050120994710984,
"velocity": 2.963981302182511
},
{
"acceleration": -2.0,
"curvature": 0.2002830292409882,
"pose": {
"rotation": {
"radians": 0.07133599535932478
},
"translation": {
"x": 5.141204588219951,
"y": 0.7767606650934269
}
},
"time": 1.626276772677567,
"velocity": 2.9214519557695735
},
{
"acceleration": -2.0,
"curvature": 0.28866029829444373,
"pose": {
"rotation": {
"radians": 0.09931107574964773
},
"translation": {
"x": 5.257244842988266,
"y": 0.7865862433730753
}
},
"time": 1.6666982459746613,
"velocity": 2.840609009175385
},
{
"acceleration": -2.000000000000005,
"curvature": 0.43468787248674423,
"pose": {
"rotation": {
"radians": 0.1361157612787428
},
"translation": {
"x": 5.360555965298797,
"y": 0.7986725000329047
}
},
"time": 1.7038002393695475,
"velocity": 2.7664050223856127
},
{
"acceleration": -2.0,
"curvature": 0.6881692061926518,
"pose": {
"rotation": {
"radians": 0.18576059156186722
},
"translation": {
"x": 5.450282411752703,
"y": 0.813064199884348
}
},
"time": 1.737048718247292,
"velocity": 2.6999080646301237
},
{
"acceleration": -2.0,
"curvature": 1.1506910251119788,
"pose": {
"rotation": {
"radians": 0.2546285940747029
},
"translation": {
"x": 5.5259183715933045,
"y": 0.8297595847695964
}
},
"time": 1.7660488419816085,
"velocity": 2.6419078171614907
},
{
"acceleration": -1.9999999999999856,
"curvature": 1.5186987630629998,
"pose": {
"rotation": {
"radians": 0.2992566260196355
},
"translation": {
"x": 5.558401489734397,
"y": 0.8389566118151697
}
},
"time": 1.778889904259632,
"velocity": 2.6162256926054437
},
{
"acceleration": -2.000000000000016,
"curvature": 2.028410803976302,
"pose": {
"rotation": {
"radians": 0.35288946944477245
},
"translation": {
"x": 5.587354523451857,
"y": 0.8487051855549526
}
},
"time": 1.790619686323524,
"velocity": 2.5927661284776597
},
{
"acceleration": -1.999999999999982,
"curvature": 2.732216037417719,
"pose": {
"rotation": {
"radians": 0.41761686464195574
},
"translation": {
"x": 5.612833430070065,
"y": 0.85898969134991
}
},
"time": 1.801260640626601,
"velocity": 2.5714842198715058
},
{
"acceleration": -2.0,
"curvature": 3.687679690925163,
"pose": {
"rotation": {
"radians": 0.495780361085183
},
"translation": {
"x": 5.634924792093376,
"y": 0.8697906341241808
}
},
"time": 1.8108592023677588,
"velocity": 2.55228709638919
},
{
"acceleration": -1.9999999999999583,
"curvature": 4.273840247785884,
"pose": {
"rotation": {
"radians": 0.5406268537099231
},
"translation": {
"x": 5.644735934566667,
"y": 0.8753775762124087
}
},
"time": 1.8152905243427222,
"velocity": 2.5434244524392633
},
{
"acceleration": -1.999999999999956,
"curvature": 4.9333534957573,
"pose": {
"rotation": {
"radians": 0.58963922998548
},
"translation": {
"x": 5.653747278354414,
"y": 0.8810844762398755
}
},
"time": 1.8194911954084323,
"velocity": 2.535023110307843
},
{
"acceleration": -1.9999999999999534,
"curvature": 5.658873955083965,
"pose": {
"rotation": {
"radians": 0.642963215962581
},
"translation": {
"x": 5.661978910269134,
"y": 0.8869077337528601
}
},
"time": 1.8234749971607176,
"velocity": 2.5270555068032725
},
{
"acceleration": -2.000000000000049,
"curvature": 6.432961197697256,
"pose": {
"rotation": {
"radians": 0.7006143245915428
},
"translation": {
"x": 5.669453105162402,
"y": 0.8928434753718619
}
},
"time": 1.8272575664901578,
"velocity": 2.519490368144392
},
{
"acceleration": -2.0,
"curvature": 7.225351485807209,
"pose": {
"rotation": {
"radians": 0.7624258141940083
},
"translation": {
"x": 5.6761943715857255,
"y": 0.8988875497251936
}
},
"time": 1.830856303641203,
"velocity": 2.5122928938423015
},
{
"acceleration": -1.999999999999946,
"curvature": 7.991724189228426,
"pose": {
"rotation": {
"radians": 0.8279973356482274
},
"translation": {
"x": 5.682229497451438,
"y": 0.9050355223825628
}
},
"time": 1.8342901837750178,
"velocity": 2.505425133574672
},
{
"acceleration": -1.9999999999999438,
"curvature": 8.675433313772503,
"pose": {
"rotation": {
"radians": 0.8966554538780468
},
"translation": {
"x": 5.6875875956935875,
"y": 0.9112826707886574
}
},
"time": 1.8375794508777534,
"velocity": 2.498846599369201
},
{
"acceleration": -2.0,
"curvature": 9.213318363739198,
"pose": {
"rotation": {
"radians": 0.9674399404910118
},
"translation": {
"x": 5.6923001499288155,
"y": 0.9176239791967422
}
},
"time": 1.8407451824241259,
"velocity": 2.492515136276456
},
{
"acceleration": -2.00000000000006,
"curvature": 9.545383058775933,
"pose": {
"rotation": {
"radians": 1.0391281762819793
},
"translation": {
"x": 5.696401060117247,
"y": 0.9240541336022376
}
},
"time": 1.8438087308858728,
"velocity": 2.486388039352962
},
{
"acceleration": 1.9999999999998772,
"curvature": 9.626122897487432,
"pose": {
"rotation": {
"radians": 1.1103023391507292
},
"translation": {
"x": 5.6999266882233535,
"y": 0.9305675166763079
}
},
"time": 1.8467910720259948,
"velocity": 2.480423357072718
},
{
"acceleration": 2.000000000000125,
"curvature": 9.433717207945644,
"pose": {
"rotation": {
"radians": 1.179451492380292
},
"translation": {
"x": 5.702915903876864,
"y": 0.937158202699452
}
},
"time": 1.8497052503089013,
"velocity": 2.4862517136385307
},
{
"acceleration": 1.9999999999998104,
"curvature": 8.973507933399123,
"pose": {
"rotation": {
"radians": 1.2450882704631019
},
"translation": {
"x": 5.705410130033643,
"y": 0.9438199524950903
}
},
"time": 1.8525630486087588,
"velocity": 2.491967310238246
},
{
"acceleration": 1.999999999999809,
"curvature": 8.274449601014636,
"pose": {
"rotation": {
"radians": 1.3058540384761685
},
"translation": {
"x": 5.70745338863657,
"y": 0.9505462083631482
}
},
"time": 1.8553808274949166,
"velocity": 2.4976028680105613
},
{
"acceleration": 1.9999999999998723,
"curvature": 7.3802162018821,
"pose": {
"rotation": {
"radians": 1.360590527953507
},
"translation": {
"x": 5.709092346276417,
"y": 0.9573300890136469
}
},
"time": 1.8581720098387258,
"velocity": 2.503185232698179
},
{
"acceleration": 2.0,
"curvature": 6.338499786744591,
"pose": {
"rotation": {
"radians": 1.4083676470189619
},
"translation": {
"x": 5.7103763598527575,
"y": 0.9641643845002879
}
},
"time": 1.8609469415771704,
"velocity": 2.508735096175068
},
{
"acceleration": -1.247383915431597,
"curvature": 5.191871209379137,
"pose": {
"rotation": {
"radians": 1.4484702142099595
},
"translation": {
"x": 5.711357522234815,
"y": 0.9710415511540447
}
},
"time": 1.8637129388116838,
"velocity": 2.5142670906440947
},
{
"acceleration": -2.0,
"curvature": -1.119629612000948e-13,
"pose": {
"rotation": {
"radians": 1.522640813734963
},
"translation": {
"x": 5.713393833152995,
"y": 0.9988160920449687
}
},
"time": 1.8748199648590391,
"velocity": 2.500412365004344
},
{
"acceleration": -2.0,
"curvature": -1.7997463537679417,
"pose": {
"rotation": {
"radians": 1.4591895562946418
},
"translation": {
"x": 5.717467942748668,
"y": 1.0558903139178604
}
},
"time": 1.8979173293366047,
"velocity": 2.4542176360492127
},
{
"acceleration": -2.0000000000000133,
"curvature": -1.860831396723005,
"pose": {
"rotation": {
"radians": 1.4011317582239293
},
"translation": {
"x": 5.721822586758374,
"y": 1.0866816848376146
}
},
"time": 1.910654590182533,
"velocity": 2.4287431143573563
},
{
"acceleration": -2.0,
"curvature": -1.613283317926593,
"pose": {
"rotation": {
"radians": 1.3419121409853658
},
"translation": {
"x": 5.728540086618939,
"y": 1.119822809009217
}
},
"time": 1.924658199802689,
"velocity": 2.400735895117044
},
{
"acceleration": -2.000000000000011,
"curvature": -1.2635059559453503,
"pose": {
"rotation": {
"radians": 1.2885476884977067
},
"translation": {
"x": 5.737959651498342,
"y": 1.1557147962058885
}
},
"time": 1.9402157160464504,
"velocity": 2.3696208626295214
},
{
"acceleration": -2.000000000000005,
"curvature": -0.9267062254268276,
"pose": {
"rotation": {
"radians": 1.2441584430604362
},
"translation": {
"x": 5.750223453915053,
"y": 1.1945894811513584
}
},
"time": 1.957544877636068,
"velocity": 2.334962539450286
},
{
"acceleration": -2.0,
"curvature": -0.4192828433041091,
"pose": {
"rotation": {
"radians": 1.18406884971576
},
"translation": {
"x": 5.782978647396093,
"y": 1.2814578333846969
}
},
"time": 1.998006238995743,
"velocity": 2.2540398167309363
},
{
"acceleration": -2.000000000000004,
"curvature": -0.09379093817246584,
"pose": {
"rotation": {
"radians": 1.1582068457903527
},
"translation": {
"x": 5.824707652545617,
"y": 1.3794665703500684
}
},
"time": 2.0462993651727177,
"velocity": 2.1574535643769868
},
{
"acceleration": -2.0,
"curvature": 0.15575693707439606,
"pose": {
"rotation": {
"radians": 1.1622063307812636
},
"translation": {
"x": 5.871347806688296,
"y": 1.4859052006810467
}
},
"time": 2.1015796821587918,
"velocity": 2.046892930404838
},
{
"acceleration": -2.0000000000000018,
"curvature": 0.42766875478971794,
"pose": {
"rotation": {
"radians": 1.196519386199766
},
"translation": {
"x": 5.9174657681065534,
"y": 1.596793639396263
}
},
"time": 2.1620378790594783,
"velocity": 1.9259765366034651
},
{
"acceleration": -2.0,
"curvature": 0.8446836053530634,
"pose": {
"rotation": {
"radians": 1.2687470821946418
},
"translation": {
"x": 5.956851485157205,
"y": 1.7073618102917205
}
},
"time": 2.2250412396627612,
"velocity": 1.7999698153968995
},
{
"acceleration": -2.0,
"curvature": 1.1717156985765467,
"pose": {
"rotation": {
"radians": 1.3243077351887729
},
"translation": {
"x": 5.972012901373198,
"y": 1.760937160419589
}
},
"time": 2.2565254196590914,
"velocity": 1.7370014554042394
},
{
"acceleration": -2.000000000000009,
"curvature": 1.6347329422876982,
"pose": {
"rotation": {
"radians": 1.3975337562454404
},
"translation": {
"x": 5.983112165388096,
"y": 1.8125292483331146
}
},
"time": 2.2874576368239254,
"velocity": 1.6751370210745715
},
{
"acceleration": -2.0,
"curvature": 1.9353194257355666,
"pose": {
"rotation": {
"radians": 1.4422991967662029
},
"translation": {
"x": 5.986908064914809,
"y": 1.8373911381916477
}
},
"time": 2.3026083633711782,
"velocity": 1.6448355679800657
},
{
"acceleration": -1.9999999999999905,
"curvature": 2.2920118509757708,
"pose": {
"rotation": {
"radians": 1.4934616410319634
},
"translation": {
"x": 5.9894190729521775,
"y": 1.861533202415763
}
},
"time": 2.3174998543440215,
"velocity": 1.6150525860343792
},
{
"acceleration": -2.0,
"curvature": 2.7104100306738657,
"pose": {
"rotation": {
"radians": 1.5517965975099306
},
"translation": {
"x": 5.990563875362073,
"y": 1.8848862852371253
}
},
"time": 2.3321090092044536,
"velocity": 1.5858342763135151
},
{
"acceleration": -2.0,
"curvature": 3.191352293884333,
"pose": {
"rotation": {
"radians": 1.618056422596352
},
"translation": {
"x": 5.990266244654739,
"y": 1.9073847020481445
}
},
"time": 2.346426633756747,
"velocity": 1.557199027208928
},
{
"acceleration": -2.0,
"curvature": 3.7265557482596496,
"pose": {
"rotation": {
"radians": 1.692867952107007
},
"translation": {
"x": 5.988455620036753,
"y": 1.928966707763685
}
},
"time": 2.3604613176871907,
"velocity": 1.529129659348041
},
{
"acceleration": -1.9999999999999782,
"curvature": 4.293183109654063,
"pose": {
"rotation": {
"radians": 1.7765790170441615
},
"translation": {
"x": 5.985067687458993,
"y": 1.9495749651827765
}
},
"time": 2.3742435588431183,
"velocity": 1.5015651770361862
},
{
"acceleration": -2.0,
"curvature": 4.575947716563208,
"pose": {
"rotation": {
"radians": 1.8217557223851526
},
"translation": {
"x": 5.98276398338517,
"y": 1.9594973409475678
}
},
"time": 2.3810582711475066,
"velocity": 1.4879357524274095
},
{
"acceleration": -2.000000000000022,
"curvature": 4.84919452252666,
"pose": {
"rotation": {
"radians": 1.8690590837847318
},
"translation": {
"x": 5.9800449596646015,
"y": 1.969157013350328
}
},
"time": 2.3878334017104557,
"velocity": 1.474385491301511
},
{
"acceleration": -2.0,
"curvature": 5.104647362664708,
"pose": {
"rotation": {
"radians": 1.918363242770447
},
"translation": {
"x": 5.976904592240592,
"y": 1.978548263525683
}
},
"time": 2.394580566789802,
"velocity": 1.4608911611428184
},
{
"acceleration": -2.0,
"curvature": 5.333305604220001,
"pose": {
"rotation": {
"radians": 1.9694887925270053
},
"translation": {
"x": 5.973337356236957,
"y": 1.9876657359188385
}
},
"time": 2.401313312491437,
"velocity": 1.4474256697395482
},
{
"acceleration": -2.0,
"curvature": 5.526001172683126,
"pose": {
"rotation": {
"radians": 2.0222012170374573
},
"translation": {
"x": 5.969338244084524,
"y": 1.9965044529218856
}
},
"time": 2.4080471123043514,
"velocity": 1.4339580701137193
},
{
"acceleration": -2.0,
"curvature": 5.6741117612066505,
"pose": {
"rotation": {
"radians": 2.076212713899952
},
"translation": {
"x": 5.96490278364763,
"y": 2.0050598295101043
}
},
"time": 2.4147993217713815,
"velocity": 1.4204536511796588
},
{
"acceleration": -2.0,
"curvature": 5.770353364479614,
"pose": {
"rotation": {
"radians": 2.131187909037711
},
"translation": {
"x": 5.960027056350623,
"y": 2.013327687878265
}
},
"time": 2.4215890882965994,
"velocity": 1.4068741181292228
},
{
"acceleration": -2.0,
"curvature": 5.809537427369968,
"pose": {
"rotation": {
"radians": 2.186753522408691
},
"translation": {
"x": 5.954707715304357,
"y": 2.021304272076936
}
},
"time": 2.4284372174904765,
"velocity": 1.3931778597414688
},
{
"acceleration": -2.0000000000000115,
"curvature": 5.789161652869356,
"pose": {
"rotation": {
"radians": 2.2425114834041704
},
"translation": {
"x": 5.948942003432694,
"y": 2.02898626264878
}
},
"time": 2.435366001314641,
"velocity": 1.3793202920931402
},
{
"acceleration": -1.9999999999999887,
"curvature": 5.7097199154453335,
"pose": {
"rotation": {
"radians": 2.2980544366910833
},
"translation": {
"x": 5.942727771599,
"y": 2.036370791264866
}
},
"time": 2.4423990170830905,
"velocity": 1.365254260556241
},
{
"acceleration": -2.000000000000011,
"curvature": 5.574666211182526,
"pose": {
"rotation": {
"radians": 2.3529821603284007
},
"translation": {
"x": 5.936063496732649,
"y": 2.0434554553609647
}
},
"time": 2.4495609095074458,
"velocity": 1.3509304757075307
},
{
"acceleration": -2.000000000000011,
"curvature": 5.390037526079528,
"pose": {
"rotation": {
"radians": 2.4069172515700594
},
"translation": {
"x": 5.9289482999555165,
"y": 2.0502383327738603
}
},
"time": 2.4568771699187666,
"velocity": 1.3362979548848886
},
{
"acceleration": -1.9999999999999891,
"curvature": 5.163809415937014,
"pose": {
"rotation": {
"radians": 2.459518569118975
},
"translation": {
"x": 5.92138196470848,
"y": 2.056717996377646
}
},
"time": 2.464373927258269,
"velocity": 1.321304440205884
},
{
"acceleration": -1.9999999999999891,
"curvature": 4.905104769358061,
"pose": {
"rotation": {
"radians": 2.510491315741194
},
"translation": {
"x": 5.91336495487792,
"y": 2.062893528720032
}
},
"time": 2.4720777644131133,
"velocity": 1.3058967658961957
},
{
"acceleration": -2.0,
"curvature": 4.62338885567898,
"pose": {
"rotation": {
"radians": 2.5595931941835426
},
"translation": {
"x": 5.904898432922218,
"y": 2.068764536658648
}
},
"time": 2.4800155712902527,
"velocity": 1.290021152141917
},
{
"acceleration": -2.0,
"curvature": 4.32776378776447,
"pose": {
"rotation": {
"radians": 2.606636635886222
},
"translation": {
"x": 5.895984277998251,
"y": 2.0743311659973473
}
},
"time": 2.4882144431848916,
"velocity": 1.2736234083526392
},
{
"acceleration": -2.0,
"curvature": 4.026434863269226,
"pose": {
"rotation": {
"radians": 2.651487567809837
},
"translation": {
"x": 5.886625104087901,
"y": 2.079594116122509
}
},
"time": 2.4967016300879967,
"velocity": 1.2566490345464285
},
{
"acceleration": -1.9999999999999951,
"curvature": 3.726375450610138,
"pose": {
"rotation": {
"radians": 2.694061479046665
},
"translation": {
"x": 5.876824278124541,
"y": 2.0845546546393443
}
},
"time": 2.505504540100105,
"velocity": 1.239043214522212
},
{
"acceleration": -2.0000000000000044,
"curvature": 3.151061356147625,
"pose": {
"rotation": {
"radians": 2.77225247891951
},
"translation": {
"x": 5.85591501128877,
"y": 2.0935764961808374
}
},
"time": 2.5241647429822036,
"velocity": 1.2017228087580145
},
{
"acceleration": -2.0000000000000044,
"curvature": 2.6307581415306687,
"pose": {
"rotation": {
"radians": 2.8412868911074316
},
"translation": {
"x": 5.833299160794847,
"y": 2.1014187520196312
}
},
"time": 2.5444251868987102,
"velocity": 1.161201920925001
},
{
"acceleration": -2.000000000000004,
"curvature": 2.1770496174212712,
"pose": {
"rotation": {
"radians": 2.901619001231788
},
"translation": {
"x": 5.809032617266562,
"y": 2.1081135117782352
}
},
"time": 2.5665242443218057,
"velocity": 1.1170038060788101
},
{
"acceleration": -2.0,
"curvature": 1.7900757342638942,
"pose": {
"rotation": {
"radians": 2.953897243038768
},
"translation": {
"x": 5.783185058695557,
"y": 2.113703361665567
}
},
"time": 2.5907235297396194,
"velocity": 1.0686052352431823
},
{
"acceleration": -2.0,
"curvature": 1.4637271396104168,
"pose": {
"rotation": {
"radians": 2.9988316484406585
},
"translation": {
"x": 5.755840530489294,
"y": 2.1182418528386693
}
},
"time": 2.6173247773784105,
"velocity": 1.0154027399656
},
{
"acceleration": -2.0,
"curvature": 0.9571976204512129,
"pose": {
"rotation": {
"radians": 3.0693416568158525
},
"translation": {
"x": 5.697072064167714,
"y": 2.124436598581255
}
},
"time": 2.679305803844247,
"velocity": 0.8914406870339272
},
{
"acceleration": -2.0000000000000004,
"curvature": 0.585513759123924,
"pose": {
"rotation": {
"radians": 3.117618157899791
},
"translation": {
"x": 5.633708971700531,
"y": 2.1273632549698496
}
},
"time": 2.757281699411052,
"velocity": 0.7354888959003167
},
{
"acceleration": -1.9999999999999996,
"curvature": 0.2856202998112673,
"pose": {
"rotation": {
"radians": -3.136814157234168
},
"translation": {
"x": 5.567000008209319,
"y": 2.1278927422878144
}
},
"time": 2.8632535089951983,
"velocity": 0.5235452767320241
},
{
"acceleration": -1.9999999999999996,
"curvature": -1.7436687397614206e-14,
"pose": {
"rotation": {
"radians": -3.1269595517884614
},
"translation": {
"x": 5.4984794920734155,
"y": 2.1271163827127797
}
},
"time": 3.1250261473612104,
"velocity": 0.0
}
]